{
  "project_info": {
    "project_number": "450973037688",
    "project_id": "bridge-9c89a",
    "storage_bucket": "bridge-9c89a.appspot.com"
  },
  "client": [
    {
      "client_info": {
        "mobilesdk_app_id": "1:450973037688:android:8d98dc8eab020eb11be98d",
        "android_client_info": {
          "package_name": "com.breakly.bridge"
        }
      },
      "oauth_client": [
        {
          "client_id": "450973037688-e3hv1hef9eppanl3lhmmupr06pp8e4l3.apps.googleusercontent.com",
          "client_type": 3
        }
      ],
      "api_key": [
        {
          "current_key": "AIzaSyC_zrfFyMsBpmCRCHk8b7TobC870AeFH5g"
        }
      ],
      "services": {
        "appinvite_service": {
          "other_platform_oauth_client": [
            {
              "client_id": "450973037688-e3hv1hef9eppanl3lhmmupr06pp8e4l3.apps.googleusercontent.com",
              "client_type": 3
            }
          ]
        }
      }
    }
  ],
  "configuration_version": "1"
}